{
  "nodes": [
    {
      "id": 1,
      "sId": 1,
      "title": "Some title",
      "x": 300,
      "y": 200
    },
    {
      "id": 2,
      "sId": 2,
      "title": "Another title",
      "x": 400,
      "y": 500
    }
  ],
  "edges": [
    {
      "id": 3,
      "source": 1,
      "target": 2,
      "curvePoint": {
        "x": 0,
        "y": 0
      }
    }
  ]
}